arial                           /usr/share/fonts/truetype/msttcorefonts/Arial.ttf
arial-bold                      arialbd.ttf
arial-italic                    ariali.ttf
arial-bold-italic               arialbi.ttf
arial_black                     ariblk.ttf
comic_sans                      comic.ttf
comic_sans-bold                 comicbd.ttf
courier                         cour.ttf
courier-bold                    courbd.ttf
courier-italic                  couri.ttf
courier-bold-italic             courbi.ttf
georgia                         georgia.ttf
georgia-bold                    georgiab.ttf
georgia-italic                  georgiai.ttf
georgia-bold-italic             georgiaz.ttf
impact                          impact.ttf
monotype.com                    monotype.ttf
recreation_symbols              recreate.ttf
times                           times.ttf
times-bold                      timesbd.ttf
times-italic                    timesi.ttf
times-bold-italic               timesbi.ttf
trebuchet_ms                    trebuc.ttf
trebuchet_ms-bold               trebucbd.ttf
trebuchet_ms-italic             trebucit.ttf
trebuchet_ms-bold-italic        trebucbi.ttf
verdana                         verdana.ttf
verdana-bold                    verdanab.ttf
verdana-italic                  verdanai.ttf
verdana-bold-italic             verdanaz.ttf
computer                        /usr/share/fonts/truetype/aenigma/zenith.ttf
