<?xml version="1.0" encoding="UTF-8"?>
<!DOCTYPE svg PUBLIC "-//W3C//DTD SVG 1.1//EN" "http://www.w3.org/Graphics/SVG/1.1/DTD/svg11.dtd">
<svg xmlns="http://www.w3.org/2000/svg" version="1.1" width="640px" height="480px" style="shape-rendering:geometricPrecision; text-rendering:geometricPrecision; image-rendering:optimizeQuality; fill-rule:evenodd; clip-rule:evenodd" xmlns:xlink="http://www.w3.org/1999/xlink">
<g><path style="opacity:1" fill="#ff0100" d="M -0.5,-0.5 C 212.833,-0.5 426.167,-0.5 639.5,-0.5C 639.5,52.8333 639.5,106.167 639.5,159.5C 563.833,159.5 488.167,159.5 412.5,159.5C 412.5,198.5 412.5,237.5 412.5,276.5C 411.833,238.167 411.167,199.833 410.5,161.5C 349.264,160.83 287.931,160.163 226.5,159.5C 150.833,159.5 75.1667,159.5 -0.5,159.5C -0.5,106.167 -0.5,52.8333 -0.5,-0.5 Z"/></g>
<g><path style="opacity:1" fill="#eddfe6" d="M 318.5,66.5 C 319.552,66.3505 320.552,66.5172 321.5,67C 328.131,73.3098 335.131,79.1432 342.5,84.5C 350.291,79.2172 358.457,74.5506 367,70.5C 374,77.5 381,84.5 388,91.5C 395.887,88.8059 403.721,85.9726 411.5,83C 412.833,82.3333 414.167,82.3333 415.5,83C 421.091,91.5158 426.424,100.182 431.5,109C 423.783,125.259 416.783,141.759 410.5,158.5C 361.543,137.615 311.209,133.782 259.5,147C 249.149,150.844 238.816,154.678 228.5,158.5C 222.217,141.759 215.217,125.259 207.5,109C 212.651,100.51 217.818,92.0102 223,83.5C 224.388,82.4464 225.888,82.2797 227.5,83C 234.61,85.389 241.61,88.0557 248.5,91C 249.833,91.6667 251.167,91.6667 252.5,91C 258.703,83.7992 265.203,76.9659 272,70.5C 280.232,75.0333 288.399,79.6999 296.5,84.5C 304.168,78.8249 311.501,72.8249 318.5,66.5 Z"/></g>
<g><path style="opacity:1" fill="#fa030c" d="M 296.5,87.5 C 297.483,91.2984 297.817,95.2984 297.5,99.5C 283.252,100.391 269.252,102.724 255.5,106.5C 254.619,102.546 253.952,98.5457 253.5,94.5C 253.5,93.8333 253.833,93.5 254.5,93.5C 268.323,90.3174 282.323,88.3174 296.5,87.5 Z"/></g>
<g><path style="opacity:1" fill="#1893da" d="M 381.5,112.5 C 383.663,106.695 384.997,100.695 385.5,94.5C 395.017,91.7446 404.35,88.4113 413.5,84.5C 418.582,91.662 423.415,98.9953 428,106.5C 428.667,108.167 428.667,109.833 428,111.5C 425.958,116.503 423.458,121.17 420.5,125.5C 407.845,120.17 394.845,115.837 381.5,112.5 Z"/></g>
<g><path style="opacity:1" fill="#1792da" d="M 253.5,94.5 C 253.952,98.5457 254.619,102.546 255.5,106.5C 257.063,110.522 258.396,114.522 259.5,118.5C 260.029,122.949 261.029,127.282 262.5,131.5C 262.861,135.915 264.194,139.915 266.5,143.5C 254.55,146.262 242.884,150.262 231.5,155.5C 224.41,140.984 217.576,126.318 211,111.5C 210.365,109.365 210.699,107.365 212,105.5C 216.5,98.5 221,91.5 225.5,84.5C 234.65,88.4113 243.983,91.7446 253.5,94.5 Z"/></g>
<g><path style="opacity:1" fill="#211a94" d="M 385.5,94.5 C 384.997,100.695 383.663,106.695 381.5,112.5C 380.167,113.833 380.167,115.167 381.5,116.5C 379.722,120.305 378.389,124.305 377.5,128.5C 377.5,128.833 377.5,129.167 377.5,129.5C 376.636,134.425 374.969,139.092 372.5,143.5C 361.102,141.165 349.769,139.165 338.5,137.5C 339.557,120.486 340.89,103.486 342.5,86.5C 350.549,82.0572 358.716,77.7239 367,73.5C 374.048,79.7155 380.215,86.7155 385.5,94.5 Z"/></g>
<g><path style="opacity:1" fill="#271995" d="M 296.5,86.5 C 296.5,86.8333 296.5,87.1667 296.5,87.5C 282.323,88.3174 268.323,90.3174 254.5,93.5C 259.428,86.0701 265.261,79.4034 272,73.5C 280.284,77.7239 288.451,82.0572 296.5,86.5 Z"/></g>
<g><path style="opacity:1" fill="#1d90d5" d="M 342.5,86.5 C 340.89,103.486 339.557,120.486 338.5,137.5C 325.833,137.5 313.167,137.5 300.5,137.5C 300.819,132.637 300.486,127.97 299.5,123.5C 299.815,119.629 299.482,115.962 298.5,112.5C 298.261,108.158 297.927,103.824 297.5,99.5C 297.817,95.2984 297.483,91.2984 296.5,87.5C 296.5,87.1667 296.5,86.8333 296.5,86.5C 304.65,81.2414 312.317,75.2414 319.5,68.5C 326.683,75.2414 334.35,81.2414 342.5,86.5 Z"/></g>
<g><path style="opacity:1" fill="#b4a11d" d="M 323.5,100.5 C 325.074,100.937 326.241,101.937 327,103.5C 327.388,101.285 328.388,99.952 330,99.5C 331.295,100.841 331.795,102.174 331.5,103.5C 332.724,102.234 334.057,101.067 335.5,100C 334.897,98.1746 334.23,96.3413 333.5,94.5C 330.242,93.5827 326.909,93.2493 323.5,93.5C 323.519,95.0603 323.852,96.5603 324.5,98C 324.164,99.0299 323.497,99.5299 322.5,99.5C 322.868,95.5822 323.368,91.9156 324,88.5C 326.336,91.3552 328.169,91.0218 329.5,87.5C 330.833,88.5 332.167,89.5 333.5,90.5C 337.11,89.153 337.443,89.8196 334.5,92.5C 337.202,96.5497 336.868,100.383 333.5,104C 328.619,106.739 325.285,105.572 323.5,100.5 Z"/></g>
<g><path style="opacity:1" fill="#e9cf17" d="M 316.5,99.5 C 316.068,100.71 315.401,101.71 314.5,102.5C 312.501,103.857 311.335,103.19 311,100.5C 310.333,101.833 309.667,101.833 309,100.5C 307.513,101.253 307.346,102.086 308.5,103C 307.833,103.667 307.167,103.667 306.5,103C 303.492,100.822 303.158,97.9883 305.5,94.5C 306.116,98.4497 308.449,99.283 312.5,97C 312.93,96.0805 313.264,95.2472 313.5,94.5C 314.291,96.1484 315.291,97.815 316.5,99.5 Z"/></g>
<g><path style="opacity:1" fill="#c9b320" d="M 409.5,93.5 C 411.045,94.2297 411.878,95.563 412,97.5C 413.205,98.0712 414.372,98.7379 415.5,99.5C 413.829,101.51 413.162,103.843 413.5,106.5C 410.635,106.055 408.135,106.722 406,108.5C 405.207,105.465 403.374,103.299 400.5,102C 401.687,100.981 402.687,99.8139 403.5,98.5C 402,94.9107 403,93.9107 406.5,95.5C 408.038,95.5466 409.038,94.8799 409.5,93.5 Z"/></g>
<g><path style="opacity:1" fill="#be1017" d="M 356.5,99.5 C 354.473,99.6621 352.473,99.4955 350.5,99C 349.944,98.6174 349.611,98.1174 349.5,97.5C 353.011,95.9151 356.678,95.4151 360.5,96C 362.5,97 364.5,98 366.5,99C 365.5,99.3333 364.5,99.6667 363.5,100C 366.126,102.146 369.126,103.479 372.5,104C 370.5,104.667 368.5,104.667 366.5,104C 363.772,101.135 360.438,99.6355 356.5,99.5 Z"/></g>
<g><path style="opacity:1" fill="#e6cc15" d="M 323.5,100.5 C 322.833,100.5 322.5,100.167 322.5,99.5C 323.497,99.5299 324.164,99.0299 324.5,98C 323.852,96.5603 323.519,95.0603 323.5,93.5C 326.909,93.2493 330.242,93.5827 333.5,94.5C 334.23,96.3413 334.897,98.1746 335.5,100C 334.057,101.067 332.724,102.234 331.5,103.5C 331.795,102.174 331.295,100.841 330,99.5C 328.388,99.952 327.388,101.285 327,103.5C 326.241,101.937 325.074,100.937 323.5,100.5 Z"/></g>
<g><path style="opacity:1" fill="#251693" d="M 297.5,99.5 C 297.927,103.824 298.261,108.158 298.5,112.5C 285.337,113.466 272.337,115.466 259.5,118.5C 258.396,114.522 257.063,110.522 255.5,106.5C 269.252,102.724 283.252,100.391 297.5,99.5 Z"/></g>
<g><path style="opacity:1" fill="#c9b424" d="M 229.5,99.5 C 231.156,100.146 232.823,100.813 234.5,101.5C 238,99.9107 239,100.911 237.5,104.5C 238.313,105.814 239.313,106.981 240.5,108C 239.437,109.188 238.103,109.688 236.5,109.5C 236.59,115.099 234.923,115.765 231.5,111.5C 230.264,112.246 228.93,112.579 227.5,112.5C 227.838,109.843 227.171,107.51 225.5,105.5C 228.337,104.491 229.67,102.491 229.5,99.5 Z"/></g>
<g><path style="opacity:1" fill="#b8a51f" d="M 316.5,99.5 C 315.291,97.815 314.291,96.1484 313.5,94.5C 313.264,95.2472 312.93,96.0805 312.5,97C 308.449,99.283 306.116,98.4497 305.5,94.5C 303.158,97.9883 303.492,100.822 306.5,103C 307.167,103.667 307.833,103.667 308.5,103C 307.346,102.086 307.513,101.253 309,100.5C 309.667,101.833 310.333,101.833 311,100.5C 311.335,103.19 312.501,103.857 314.5,102.5C 311.906,106.107 308.739,106.44 305,103.5C 302.015,99.921 301.849,96.2543 304.5,92.5C 304.023,91.5224 303.357,90.6891 302.5,90C 305.119,89.8485 307.453,89.0152 309.5,87.5C 310.548,88.3829 311.715,89.0496 313,89.5C 316.811,87.9788 317.311,88.6454 314.5,91.5C 316.779,93.9448 317.446,96.6114 316.5,99.5 Z"/></g>
<g><path style="opacity:1" fill="#fa010c" d="M 298.5,112.5 C 299.482,115.962 299.815,119.629 299.5,123.5C 287.38,126.127 275.047,128.794 262.5,131.5C 261.029,127.282 260.029,122.949 259.5,118.5C 272.337,115.466 285.337,113.466 298.5,112.5 Z"/></g>
<g><path style="opacity:1" fill="#d8bd1c" d="M 349.5,97.5 C 349.611,98.1174 349.944,98.6174 350.5,99C 352.473,99.4955 354.473,99.6621 356.5,99.5C 357.463,101.298 356.796,102.632 354.5,103.5C 355.648,105.149 356.981,106.649 358.5,108C 364.387,109.388 370.054,110.221 375.5,110.5C 374.826,112.517 373.659,114.183 372,115.5C 371.627,117.698 371.127,119.865 370.5,122C 368.621,123.709 366.954,125.542 365.5,127.5C 364.833,127.5 364.167,127.5 363.5,127.5C 364.614,126.115 365.614,124.615 366.5,123C 365.975,122.308 365.308,121.808 364.5,121.5C 362.024,122.809 360.024,124.642 358.5,127C 357.5,127.667 356.5,127.667 355.5,127C 357.923,125.429 359.256,123.263 359.5,120.5C 357.712,120.215 356.045,120.548 354.5,121.5C 353.977,123.933 352.81,125.933 351,127.5C 350.5,127.333 350,127.167 349.5,127C 352.097,124.683 352.93,121.85 352,118.5C 351.167,120.167 350.333,121.833 349.5,123.5C 348.635,124.583 347.635,124.749 346.5,124C 348.297,122.406 349.297,120.406 349.5,118C 348.167,114.333 348.167,110.667 349.5,107C 349.215,105.11 348.215,103.777 346.5,103C 348.525,101.806 348.859,100.306 347.5,98.5C 347.957,97.7025 348.624,97.3691 349.5,97.5 Z"/></g>
<g><path style="opacity:1" fill="#ef150f" d="M 381.5,116.5 C 394.191,119.564 406.524,123.73 418.5,129C 418.957,129.414 419.291,129.914 419.5,130.5C 417.594,133.64 416.26,136.973 415.5,140.5C 408.865,138.004 402.198,135.504 395.5,133C 389.624,130.985 383.624,129.485 377.5,128.5C 378.389,124.305 379.722,120.305 381.5,116.5 Z"/></g>
<g><path style="opacity:1" fill="#e9ce15" d="M 326.5,122.5 C 325.341,123.74 324.341,125.074 323.5,126.5C 321.019,126.677 319.186,125.677 318,123.5C 317.667,124.5 317.333,125.5 317,126.5C 314.554,123.822 314.054,120.822 315.5,117.5C 317.768,116.456 320.101,116.289 322.5,117C 323.747,119.016 325.081,120.849 326.5,122.5 Z"/></g>
<g><path style="opacity:1" fill="#b7a421" d="M 326.5,122.5 C 325.081,120.849 323.747,119.016 322.5,117C 320.101,116.289 317.768,116.456 315.5,117.5C 314.054,120.822 314.554,123.822 317,126.5C 317.333,125.5 317.667,124.5 318,123.5C 319.186,125.677 321.019,126.677 323.5,126.5C 321.661,129.528 319.328,130.028 316.5,128C 315.284,126.406 313.951,124.906 312.5,123.5C 312.888,121.359 312.888,119.359 312.5,117.5C 314.542,116.497 314.875,115.163 313.5,113.5C 314.651,112.269 315.817,112.269 317,113.5C 317.368,112.09 318.201,111.09 319.5,110.5C 321.452,112.533 323.618,112.866 326,111.5C 326.333,113.047 325.833,114.38 324.5,115.5C 326.859,117.55 327.526,119.884 326.5,122.5 Z"/></g>
<g><path style="opacity:1" fill="#200b07" d="M 407.5,127.5 C 407.5,129.167 407.5,130.833 407.5,132.5C 404.627,132.198 401.961,131.531 399.5,130.5C 402.152,129.706 401.985,129.04 399,128.5C 397.93,128.528 397.097,128.861 396.5,129.5C 394.143,129.663 391.81,129.497 389.5,129C 390.308,128.692 390.975,128.192 391.5,127.5C 389.234,126.686 386.9,126.186 384.5,126C 385.448,125.517 386.448,125.351 387.5,125.5C 387.5,124.5 387.5,123.5 387.5,122.5C 383.058,122.116 382.724,121.116 386.5,119.5C 392.249,124.87 399.249,127.536 407.5,127.5 Z"/></g>
<g><path style="opacity:1" fill="#261894" d="M 299.5,123.5 C 300.486,127.97 300.819,132.637 300.5,137.5C 288.946,138.36 277.612,140.36 266.5,143.5C 264.194,139.915 262.861,135.915 262.5,131.5C 275.047,128.794 287.38,126.127 299.5,123.5 Z"/></g>
<g><path style="opacity:1" fill="#e5e9ec" d="M 251.5,122.5 C 252.872,129.899 249.872,135.066 242.5,138C 236.088,139.128 231.088,136.961 227.5,131.5C 227.667,131.167 227.833,130.833 228,130.5C 238.967,137.122 246.801,134.455 251.5,122.5 Z"/></g>
<g><path style="opacity:1" fill="#d93022" d="M 363.5,127.5 C 364.167,127.5 364.833,127.5 365.5,127.5C 364.796,129.344 363.463,129.844 361.5,129C 362.044,128.283 362.711,127.783 363.5,127.5 Z"/></g>
<g><path style="opacity:1" fill="#b5a8a8" d="M 396.5,129.5 C 397.097,128.861 397.93,128.528 399,128.5C 401.985,129.04 402.152,129.706 399.5,130.5C 398.609,129.89 397.609,129.557 396.5,129.5 Z"/></g>
<g><path style="opacity:1" fill="#680a04" d="M 407.5,127.5 C 410.421,128.065 413.088,129.232 415.5,131C 413.064,130.947 410.731,131.113 408.5,131.5C 409.04,132.748 409.707,133.915 410.5,135C 409.975,135.692 409.308,136.192 408.5,136.5C 408.595,135.309 408.262,133.975 407.5,132.5C 407.5,130.833 407.5,129.167 407.5,127.5 Z"/></g>
<g><path style="opacity:1" fill="#1c95dd" d="M 377.5,129.5 C 377.5,130.5 377.5,131.5 377.5,132.5C 381.417,133.637 385.417,134.47 389.5,135C 397.087,138.139 404.753,140.972 412.5,143.5C 411.948,147.941 410.281,151.941 407.5,155.5C 395.865,151.019 384.198,147.019 372.5,143.5C 374.969,139.092 376.636,134.425 377.5,129.5 Z"/></g>
<g><path style="opacity:1" fill="#fffefe" d="M -0.5,159.5 C 75.1667,159.5 150.833,159.5 226.5,159.5C 226.5,198.167 226.5,236.833 226.5,275.5C 227.732,291.096 232.065,305.763 239.5,319.5C 159.5,319.5 79.5,319.5 -0.5,319.5C -0.5,266.167 -0.5,212.833 -0.5,159.5 Z"/></g>
<g><path style="opacity:1" fill="#fffefe" d="M 639.5,159.5 C 639.5,212.833 639.5,266.167 639.5,319.5C 559.167,319.5 478.833,319.5 398.5,319.5C 405.922,308.308 410.255,295.975 411.5,282.5C 412.461,280.735 412.795,278.735 412.5,276.5C 412.5,237.5 412.5,198.5 412.5,159.5C 488.167,159.5 563.833,159.5 639.5,159.5 Z"/></g>
<g><path style="opacity:1" fill="#ff6058" d="M 226.5,159.5 C 287.931,160.163 349.264,160.83 410.5,161.5C 349.833,161.5 289.167,161.5 228.5,161.5C 228.5,199.5 228.5,237.5 228.5,275.5C 227.833,275.5 227.167,275.5 226.5,275.5C 226.5,236.833 226.5,198.167 226.5,159.5 Z"/></g>
<g><path style="opacity:1" fill="#fffcfc" d="M 410.5,161.5 C 410.5,201.167 410.5,240.833 410.5,280.5C 402.491,326.509 375.491,353.509 329.5,361.5C 288.65,364.162 258.15,347.829 238,312.5C 232.267,300.805 229.1,288.471 228.5,275.5C 228.5,237.5 228.5,199.5 228.5,161.5C 289.167,161.5 349.833,161.5 410.5,161.5 Z"/></g>
<g><path style="opacity:1" fill="#ff9090" d="M 410.5,161.5 C 411.167,199.833 411.833,238.167 412.5,276.5C 412.795,278.735 412.461,280.735 411.5,282.5C 411.672,281.508 411.338,280.842 410.5,280.5C 410.5,240.833 410.5,201.167 410.5,161.5 Z"/></g>
<g><path style="opacity:1" fill="#fe0000" d="M 266.5,165.5 C 266.5,177.833 266.5,190.167 266.5,202.5C 255.167,202.5 243.833,202.5 232.5,202.5C 232.5,190.167 232.5,177.833 232.5,165.5C 243.833,165.5 255.167,165.5 266.5,165.5 Z"/></g>
<g><path style="opacity:1" fill="#ff8a88" d="M 336.5,164.5 C 336.5,164.833 336.5,165.167 336.5,165.5C 325.167,165.5 313.833,165.5 302.5,165.5C 302.5,178.167 302.5,190.833 302.5,203.5C 302.167,203.5 301.833,203.5 301.5,203.5C 301.5,190.5 301.5,177.5 301.5,164.5C 313.167,164.5 324.833,164.5 336.5,164.5 Z"/></g>
<g><path style="opacity:1" fill="#ff0302" d="M 336.5,165.5 C 336.5,178.167 336.5,190.833 336.5,203.5C 325.167,203.5 313.833,203.5 302.5,203.5C 302.5,190.833 302.5,178.167 302.5,165.5C 313.833,165.5 325.167,165.5 336.5,165.5 Z"/></g>
<g><path style="opacity:1" fill="#fe0000" d="M 372.5,165.5 C 383.833,165.5 395.167,165.5 406.5,165.5C 406.5,177.833 406.5,190.167 406.5,202.5C 395.167,202.5 383.833,202.5 372.5,202.5C 372.5,190.167 372.5,177.833 372.5,165.5 Z"/></g>
<g><path style="opacity:1" fill="#ff413f" d="M 372.5,165.5 C 383.988,164.505 395.655,164.172 407.5,164.5C 407.5,177.5 407.5,190.5 407.5,203.5C 395.833,203.5 384.167,203.5 372.5,203.5C 372.5,203.167 372.5,202.833 372.5,202.5C 383.833,202.5 395.167,202.5 406.5,202.5C 406.5,190.167 406.5,177.833 406.5,165.5C 395.167,165.5 383.833,165.5 372.5,165.5 Z"/></g>
<g><path style="opacity:1" fill="#ff4240" d="M 266.5,165.5 C 255.167,165.5 243.833,165.5 232.5,165.5C 232.5,177.833 232.5,190.167 232.5,202.5C 243.833,202.5 255.167,202.5 266.5,202.5C 266.5,202.833 266.5,203.167 266.5,203.5C 254.833,203.5 243.167,203.5 231.5,203.5C 231.5,190.5 231.5,177.5 231.5,164.5C 243.345,164.172 255.012,164.505 266.5,165.5 Z"/></g>
<g><path style="opacity:1" fill="#ff0403" d="M 231.5,242.5 C 243.167,242.5 254.833,242.5 266.5,242.5C 266.5,255.167 266.5,267.833 266.5,280.5C 254.833,280.5 243.167,280.5 231.5,280.5C 231.5,267.833 231.5,255.167 231.5,242.5 Z"/></g>
<g><path style="opacity:1" fill="#ff0403" d="M 372.5,242.5 C 384.167,242.5 395.833,242.5 407.5,242.5C 407.813,254.884 407.48,267.217 406.5,279.5C 395.186,280.499 383.853,280.832 372.5,280.5C 372.5,267.833 372.5,255.167 372.5,242.5 Z"/></g>
<g><path style="opacity:1" fill="#fffdfd" d="M 266.5,242.5 C 278.167,242.5 289.833,242.5 301.5,242.5C 301.5,255.167 301.5,267.833 301.5,280.5C 289.833,280.5 278.167,280.5 266.5,280.5C 266.5,267.833 266.5,255.167 266.5,242.5 Z"/></g>
<g><path style="opacity:1" fill="#fffefe" d="M 372.5,242.5 C 372.5,255.167 372.5,267.833 372.5,280.5C 360.833,280.5 349.167,280.5 337.5,280.5C 337.5,267.833 337.5,255.167 337.5,242.5C 349.167,242.5 360.833,242.5 372.5,242.5 Z"/></g>
<g><path style="opacity:1" fill="#ffa9a8" d="M 336.5,164.5 C 337.495,177.323 337.829,190.323 337.5,203.5C 337.5,216.167 337.5,228.833 337.5,241.5C 348.833,241.5 360.167,241.5 371.5,241.5C 371.5,228.833 371.5,216.167 371.5,203.5C 371.833,203.5 372.167,203.5 372.5,203.5C 372.5,216.167 372.5,228.833 372.5,241.5C 384.345,241.172 396.012,241.505 407.5,242.5C 395.833,242.5 384.167,242.5 372.5,242.5C 360.833,242.5 349.167,242.5 337.5,242.5C 337.5,255.167 337.5,267.833 337.5,280.5C 337.5,280.833 337.5,281.167 337.5,281.5C 337.5,294.167 337.5,306.833 337.5,319.5C 337.829,332.011 337.495,344.345 336.5,356.5C 336.5,344.167 336.5,331.833 336.5,319.5C 336.5,306.833 336.5,294.167 336.5,281.5C 325.167,281.5 313.833,281.5 302.5,281.5C 302.5,294.167 302.5,306.833 302.5,319.5C 302.5,331.833 302.5,344.167 302.5,356.5C 301.505,344.345 301.171,332.011 301.5,319.5C 301.5,306.833 301.5,294.167 301.5,281.5C 301.5,281.167 301.5,280.833 301.5,280.5C 301.5,267.833 301.5,255.167 301.5,242.5C 289.833,242.5 278.167,242.5 266.5,242.5C 254.833,242.5 243.167,242.5 231.5,242.5C 242.988,241.505 254.655,241.172 266.5,241.5C 266.5,228.833 266.5,216.167 266.5,203.5C 266.833,203.5 267.167,203.5 267.5,203.5C 267.5,216.167 267.5,228.833 267.5,241.5C 278.833,241.5 290.167,241.5 301.5,241.5C 301.5,228.833 301.5,216.167 301.5,203.5C 301.833,203.5 302.167,203.5 302.5,203.5C 302.5,216.167 302.5,228.833 302.5,241.5C 313.833,241.5 325.167,241.5 336.5,241.5C 336.5,228.833 336.5,216.167 336.5,203.5C 336.5,190.833 336.5,178.167 336.5,165.5C 336.5,165.167 336.5,164.833 336.5,164.5 Z"/></g>
<g><path style="opacity:1" fill="#ff0101" d="M 302.5,242.5 C 313.833,242.5 325.167,242.5 336.5,242.5C 336.5,255.167 336.5,267.833 336.5,280.5C 325.167,280.5 313.833,280.5 302.5,280.5C 302.5,267.833 302.5,255.167 302.5,242.5 Z"/></g>
<g><path style="opacity:1" fill="#ff0101" d="M 337.5,203.5 C 348.833,203.5 360.167,203.5 371.5,203.5C 371.5,216.167 371.5,228.833 371.5,241.5C 360.167,241.5 348.833,241.5 337.5,241.5C 337.5,228.833 337.5,216.167 337.5,203.5 Z"/></g>
<g><path style="opacity:1" fill="#ff0101" d="M 267.5,203.5 C 278.833,203.5 290.167,203.5 301.5,203.5C 301.5,216.167 301.5,228.833 301.5,241.5C 290.167,241.5 278.833,241.5 267.5,241.5C 267.5,228.833 267.5,216.167 267.5,203.5 Z"/></g>
<g><path style="opacity:1" fill="#fffefe" d="M 302.5,203.5 C 313.833,203.5 325.167,203.5 336.5,203.5C 336.5,216.167 336.5,228.833 336.5,241.5C 325.167,241.5 313.833,241.5 302.5,241.5C 302.5,228.833 302.5,216.167 302.5,203.5 Z"/></g>
<g><path style="opacity:1" fill="#ff6d6c" d="M 266.5,280.5 C 278.167,280.5 289.833,280.5 301.5,280.5C 301.5,280.833 301.5,281.167 301.5,281.5C 290.167,281.5 278.833,281.5 267.5,281.5C 267.5,294.167 267.5,306.833 267.5,319.5C 267.167,319.5 266.833,319.5 266.5,319.5C 266.5,306.5 266.5,293.5 266.5,280.5 Z"/></g>
<g><path style="opacity:1" fill="#ff0201" d="M 301.5,281.5 C 301.5,294.167 301.5,306.833 301.5,319.5C 290.167,319.5 278.833,319.5 267.5,319.5C 267.5,306.833 267.5,294.167 267.5,281.5C 278.833,281.5 290.167,281.5 301.5,281.5 Z"/></g>
<g><path style="opacity:1" fill="#fffefe" d="M 336.5,319.5 C 325.167,319.5 313.833,319.5 302.5,319.5C 302.5,306.833 302.5,294.167 302.5,281.5C 313.833,281.5 325.167,281.5 336.5,281.5C 336.5,294.167 336.5,306.833 336.5,319.5 Z"/></g>
<g><path style="opacity:1" fill="#ff0201" d="M 337.5,281.5 C 348.833,281.5 360.167,281.5 371.5,281.5C 371.5,294.167 371.5,306.833 371.5,319.5C 360.167,319.5 348.833,319.5 337.5,319.5C 337.5,306.833 337.5,294.167 337.5,281.5 Z"/></g>
<g><path style="opacity:1" fill="#ff7373" d="M 337.5,281.5 C 337.5,281.167 337.5,280.833 337.5,280.5C 349.167,280.5 360.833,280.5 372.5,280.5C 372.5,293.5 372.5,306.5 372.5,319.5C 372.167,319.5 371.833,319.5 371.5,319.5C 371.5,306.833 371.5,294.167 371.5,281.5C 360.167,281.5 348.833,281.5 337.5,281.5 Z"/></g>
<g><path style="opacity:1" fill="#171795" d="M -0.5,319.5 C 79.5,319.5 159.5,319.5 239.5,319.5C 261.231,351.031 291.231,365.365 329.5,362.5C 359.381,359.066 382.381,344.733 398.5,319.5C 478.833,319.5 559.167,319.5 639.5,319.5C 639.5,372.833 639.5,426.167 639.5,479.5C 426.167,479.5 212.833,479.5 -0.5,479.5C -0.5,426.167 -0.5,372.833 -0.5,319.5 Z"/></g>
<g><path style="opacity:1" fill="#f04145" d="M 226.5,275.5 C 227.167,275.5 227.833,275.5 228.5,275.5C 229.1,288.471 232.267,300.805 238,312.5C 258.15,347.829 288.65,364.162 329.5,361.5C 329.5,361.833 329.5,362.167 329.5,362.5C 291.231,365.365 261.231,351.031 239.5,319.5C 232.065,305.763 227.732,291.096 226.5,275.5 Z"/></g>
<g><path style="opacity:1" fill="#ff100b" d="M 266.5,319.5 C 266.83,326.2 266.497,332.866 265.5,339.5C 258.371,334.248 252.371,327.915 247.5,320.5C 253.798,319.504 260.132,319.17 266.5,319.5 Z"/></g>
<g><path style="opacity:1" fill="#ff0603" d="M 302.5,319.5 C 313.833,319.5 325.167,319.5 336.5,319.5C 336.5,331.833 336.5,344.167 336.5,356.5C 330.712,357.49 324.879,358.157 319,358.5C 313.44,358.234 307.94,357.567 302.5,356.5C 302.5,344.167 302.5,331.833 302.5,319.5 Z"/></g>
<g><path style="opacity:1" fill="#ff0e0a" d="M 372.5,319.5 C 378.868,319.17 385.202,319.504 391.5,320.5C 386.203,327.464 380.203,333.798 373.5,339.5C 372.503,332.866 372.17,326.2 372.5,319.5 Z"/></g>
<g><path style="opacity:1" fill="#ef3a3f" d="M 410.5,280.5 C 411.338,280.842 411.672,281.508 411.5,282.5C 410.255,295.975 405.922,308.308 398.5,319.5C 382.381,344.733 359.381,359.066 329.5,362.5C 329.5,362.167 329.5,361.833 329.5,361.5C 375.491,353.509 402.491,326.509 410.5,280.5 Z"/></g>
</svg>
